%YAML 1.1
%TAG !u! tag:unity3d.com,2011:
--- !u!114 &11400000
MonoBehaviour:
  m_ObjectHideFlags: 0
  m_PrefabParentObject: {fileID: 0}
  m_PrefabInternal: {fileID: 0}
  m_GameObject: {fileID: 0}
  m_Enabled: 1
  m_EditorHideFlags: 0
  m_Script: {fileID: 11500000, guid: 34404cb99b59bb543805a55e3c469d61, type: 3}
  m_Name: Background
  m_EditorClassIdentifier: 
  editorConfirmations: 1
  animations:
  - speedRatio: 1
    loop: 1
    frameToLoop: 0
    frameDatas:
    - sprite: {fileID: 21300000, guid: 443d0fe0bb72f47879855997ff7919ef, type: 3}
      time: 0.1
      eventEnabled: 0
      eventName: 
    - sprite: {fileID: 21300002, guid: 443d0fe0bb72f47879855997ff7919ef, type: 3}
      time: 0.1
      eventEnabled: 0
      eventName: 
    - sprite: {fileID: 21300004, guid: 443d0fe0bb72f47879855997ff7919ef, type: 3}
      time: 0.1
      eventEnabled: 0
      eventName: 
    - sprite: {fileID: 21300006, guid: 443d0fe0bb72f47879855997ff7919ef, type: 3}
      time: 0.1
      eventEnabled: 0
      eventName: 
    - sprite: {fileID: 21300008, guid: 443d0fe0bb72f47879855997ff7919ef, type: 3}
      time: 0.1
      eventEnabled: 0
      eventName: 
    - sprite: {fileID: 21300010, guid: 443d0fe0bb72f47879855997ff7919ef, type: 3}
      time: 0.1
      eventEnabled: 0
      eventName: 
    name: ocean
    selectedIndex: 5
    newFramesTime: 0.1
