%YAML 1.1
%TAG !u! tag:unity3d.com,2011:
--- !u!114 &11400000
MonoBehaviour:
  m_ObjectHideFlags: 0
  m_PrefabParentObject: {fileID: 0}
  m_PrefabInternal: {fileID: 0}
  m_GameObject: {fileID: 0}
  m_Enabled: 1
  m_EditorHideFlags: 0
  m_Script: {fileID: 11500000, guid: 34404cb99b59bb543805a55e3c469d61, type: 3}
  m_Name: prototype-tile
  m_EditorClassIdentifier: 
  editorConfirmations: 1
  animations:
  - speedRatio: 5
    loop: 1
    frameToLoop: 0
    frameDatas:
    - sprite: {fileID: 21300024, guid: f09474a02bdf8489e88322ea8ff26aae, type: 3}
      time: 0.1
      eventEnabled: 0
      eventName: 
    name: 70726f746f74797065
    selectedIndex: 0
    newFramesTime: 0.1
